<?xml version="1.0" encoding="UTF-8"?>
<svg width="32px" height="43px" viewBox="0 0 32 43" version="1.1" xmlns="http://www.w3.org/2000/svg" xmlns:xlink="http://www.w3.org/1999/xlink">
    <!-- Generator: Sketch 51.1 (57501) - http://www.bohemiancoding.com/sketch -->
    <title>11</title>
    <desc>Created with Sketch.</desc>
    <defs></defs>
    <g id="Page-1" stroke="none" stroke-width="1" fill="none" fill-rule="evenodd">
        <g id="11" transform="translate(-0.532702, 0.490544)">
            <path d="M16.4944565,42.2775983 C27.124499,30.6847674 32.4395202,21.9529468 32.4395202,16.0821364 C32.4395202,7.27592087 25.300672,0.137072659 16.4944565,0.137072659 C7.68824092,0.137072659 0.549392708,7.27592087 0.549392708,16.0821364 C0.549392708,21.9529468 5.86441396,30.6847674 16.4944565,42.2775983 Z" id="Combined-Shape" fill="#FF2D2D"></path>
            <text font-family="sans-serif" font-size="25" font-weight="bolder" letter-spacing="-2.333333" fill="#FFFFFF">
                <tspan x="3.99445647" y="25.1370727">11</tspan>
            </text>
        </g>
    </g>
</svg>
