<?xml version="1.0" encoding="UTF-8"?>
<svg width="50px" height="50px" viewBox="0 0 50 50" version="1.1" xmlns="http://www.w3.org/2000/svg" xmlns:xlink="http://www.w3.org/1999/xlink">
    <!-- Generator: Sketch 48.2 (47327) - http://www.bohemiancoding.com/sketch -->
    <title>backUp</title>
    <desc>Created with Sketch.</desc>
    <defs></defs>
    <g id="Page-1" stroke="none" stroke-width="1" fill="none" fill-rule="evenodd">
        <g id="backUp" stroke="#FFFFFF" stroke-width="4">
            <polyline id="Path-7" transform="translate(25.000000, 24.000000) rotate(-90.000000) translate(-25.000000, -24.000000) " points="19.15391 35.1123653 30.84609 24 19.15391 12.8876347 19.15391 12.8876347"></polyline>
        </g>
    </g>
</svg>