<?xml version="1.0" encoding="UTF-8"?>
<svg width="32px" height="43px" viewBox="0 0 32 43" version="1.1" xmlns="http://www.w3.org/2000/svg" xmlns:xlink="http://www.w3.org/1999/xlink">
    <!-- Generator: Sketch 48.2 (47327) - http://www.bohemiancoding.com/sketch -->
    <title>Group 6</title>
    <desc>Created with Sketch.</desc>
    <defs></defs>
    <g id="Page-1" stroke="none" stroke-width="1" fill="none" fill-rule="evenodd">
        <g id="Group-6">
            <path d="M15.9450638,42.1405257 C26.5751063,30.5476948 31.8901275,21.8158741 31.8901275,15.9450638 C31.8901275,7.13884821 24.7512793,0 15.9450638,0 C7.13884821,0 0,7.13884821 0,15.9450638 C0,21.8158741 5.31502126,30.5476948 15.9450638,42.1405257 Z" id="Combined-Shape" fill="#FF2D2D"></path>
            <path d="M14.3240788,13.3506742 C13.8436488,14.5638827 12.0839664,15.1652962 9.04503176,15.1549147 L9.04503176,11.9833455 C12.1414599,11.7290755 13.9011422,10.3361511 14.3240788,7.80457219 L14.3240788,7.39396775 L18.4646107,7.39396775 L18.4646107,24.624737 L14.3240788,24.624737 L14.3240788,13.3506742 Z" id="Combined-Shape" fill="#FFFFFF"></path>
        </g>
    </g>
</svg>