<?xml version="1.0" encoding="UTF-8"?>
<svg width="50px" height="50px" viewBox="0 0 50 50" version="1.1" xmlns="http://www.w3.org/2000/svg" xmlns:xlink="http://www.w3.org/1999/xlink">
    <!-- Generator: Sketch 48.2 (47327) - http://www.bohemiancoding.com/sketch -->
    <title>search2</title>
    <desc>Created with Sketch.</desc>
    <defs></defs>
    <g id="Page-1" stroke="none" stroke-width="1" fill="none" fill-rule="evenodd">
        <g id="search2">
            <g id="Group" transform="translate(10.699999, 6.649999)">
                <g id="KarteIcon" fill="#FF4646">
                    <path d="M14.3000008,36.5176094 C23.4000013,26.3767334 27.9500015,18.7933997 27.9500015,13.7676082 C27.9500015,6.22892094 21.838688,0.117607434 14.3000008,0.117607434 C6.76131354,0.117607434 0.650000036,6.22892094 0.650000036,13.7676082 C0.650000036,18.7933997 5.20000029,26.3767334 14.3000008,36.5176094 Z" id="Combined-Shape"></path>
                </g>
                <text id="2" font-family="Sneak-Black, Sneak" font-size="17.8620007" font-weight="700" fill="#FFFFFF">
                    <tspan x="8.40355057" y="19.8830328">2</tspan>
                </text>
            </g>
        </g>
    </g>
</svg>