<?xml version="1.0" encoding="UTF-8"?>
<svg width="16px" height="16px" viewBox="0 0 16 16" version="1.1" xmlns="http://www.w3.org/2000/svg" xmlns:xlink="http://www.w3.org/1999/xlink">
    <!-- Generator: Sketch 48.2 (47327) - http://www.bohemiancoding.com/sketch -->
    <title>Combined Shape</title>
    <desc>Created with Sketch.</desc>
    <defs></defs>
    <g id="Home-smalll" stroke="none" stroke-width="1" fill="none" fill-rule="evenodd" transform="translate(-174.000000, -502.000000)">
        <g id="Group" transform="translate(167.000000, 495.962593)" fill="#FF2D2D">
            <path d="M15,21.28538 C10.8578644,21.28538 7.5,17.9275156 7.5,13.78538 C7.5,9.64324436 10.8578644,6.28537998 15,6.28537998 C19.1421356,6.28537998 22.5,9.64324436 22.5,13.78538 C22.5,17.9275156 19.1421356,21.28538 15,21.28538 Z M14.0097903,8.77958596 L14.0097903,14.78538 L16.2505191,14.78538 L16.2505191,8.77958596 L14.0097903,8.77958596 Z M15.1666599,16.0311951 C14.3308013,16.0311951 13.6532041,16.7087923 13.6532041,17.5446509 C13.6532041,18.3805094 14.3308013,19.0581067 15.1666599,19.0581067 C16.0025185,19.0581067 16.6801157,18.3805094 16.6801157,17.5446509 C16.6801157,16.7087923 16.0025185,16.0311951 15.1666599,16.0311951 Z" id="Combined-Shape" transform="translate(15.000000, 13.785380) rotate(170.000000) translate(-15.000000, -13.785380) "></path>
        </g>
    </g>
</svg>